<?xml version="1.0" encoding="UTF-8" standalone="no"?>
<!DOCTYPE svg PUBLIC "-//W3C//DTD SVG 1.1//EN" "http://www.w3.org/Graphics/SVG/1.1/DTD/svg11.dtd">
<svg width="100%" height="100%" viewBox="0 0 185 87" version="1.1" xmlns="http://www.w3.org/2000/svg" xmlns:xlink="http://www.w3.org/1999/xlink" xml:space="preserve" xmlns:serif="http://www.serif.com/" style="fill-rule:evenodd;clip-rule:evenodd;stroke-linejoin:round;stroke-miterlimit:1.41421;">
    <g transform="matrix(1,0,0,1,-20.3988,-69.334)">
        <path d="M129.266,90.384C128.438,85.978 124.094,82.375 119.613,82.375L94.453,82.375C89.969,82.375 86.978,85.978 87.806,90.384L98.559,147.656C99.388,152.063 103.731,155.666 108.216,155.666L133.375,155.666C137.856,155.666 140.847,152.063 140.019,147.656L129.266,90.384ZM148.903,147.278C149.688,151.691 153.994,155.303 158.478,155.303L200.806,155.303C205.288,155.303 205.888,153.291 202.141,150.834L196.769,147.312C193.019,144.853 189.313,139.231 188.528,134.819L178.325,77.359C177.541,72.947 173.234,69.334 168.75,69.334L143.213,69.334C138.731,69.334 135.703,72.947 136.488,77.359L148.903,147.278ZM88.513,147.278C89.294,151.691 86.269,155.303 81.784,155.303L56.25,155.303C51.766,155.303 47.459,151.691 46.675,147.278L36.472,89.822C35.688,85.406 31.978,79.784 28.231,77.325L22.859,73.806C19.113,71.347 19.713,69.334 24.194,69.334L66.522,69.334C71.003,69.334 75.313,72.947 76.097,77.359L88.513,147.278Z" style="fill:url(#_Linear1);fill-rule:nonzero;"/>
    </g>
    <defs>
        <linearGradient id="_Linear1" x1="0" y1="0" x2="1" y2="0" gradientUnits="userSpaceOnUse" gradientTransform="matrix(184.203,0,0,184.203,20.3985,112.5)"><stop offset="0" style="stop-color:rgb(119,180,69);stop-opacity:1"/><stop offset="0.45" style="stop-color:rgb(85,163,96);stop-opacity:1"/><stop offset="1" style="stop-color:rgb(0,120,161);stop-opacity:1"/></linearGradient>
    </defs>
</svg>
